{
	"info": {
		"_postman_id": "5908ad26-248b-4c61-a710-a03acfdbc187",
		"name": "Mock API 2",
		"schema": "https://schema.getpostman.com/json/collection/v2.1.0/collection.json",
		"_exporter_id": "13699146"
	},
	"item": [
		{
			"name": "v1/home",
			"protocolProfileBehavior": {
				"disableBodyPruning": true
			},
			"request": {
				"method": "GET",
				"header": [],
				"body": {
					"mode": "raw",
					"raw": ""
				},
				"url": {
					"raw": "{{url}}/v1/home",
					"host": [
						"{{url}}"
					],
					"path": [
						"v1",
						"home"
					]
				}
			},
			"response": [
				{
					"name": "Default",
					"originalRequest": {
						"method": "GET",
						"header": [],
						"body": {
							"mode": "raw",
							"raw": ""
						},
						"url": {
							"raw": "{{url}}/v1/home",
							"host": [
								"{{url}}"
							],
							"path": [
								"v1",
								"home"
							]
						}
					},
					"code": 200,
					"_postman_previewlanguage": "json",
					"header": null,
					"cookie": [],
					"body": "[\r\n    {\r\n        \"id\": 1,\r\n        \"name\": \"The Russian\",\r\n        \"type\": \"fiction\",\r\n        \"available\": true\r\n    },\r\n    {\r\n        \"id\": 2,\r\n        \"name\": \"Just as I Am\",\r\n        \"type\": \"non-fiction\",\r\n        \"available\": false\r\n    },\r\n    {\r\n        \"id\": 3,\r\n        \"name\": \"The Vanishing Half\",\r\n        \"type\": \"fiction\",\r\n        \"available\": true\r\n    },\r\n    {\r\n        \"id\": 4,\r\n        \"name\": \"The Midnight Library\",\r\n        \"type\": \"fiction\",\r\n        \"available\": true\r\n    },\r\n    {\r\n        \"id\": 5,\r\n        \"name\": \"Untamed\",\r\n        \"type\": \"non-fiction\",\r\n        \"available\": true\r\n    },\r\n    {\r\n        \"id\": 6,\r\n        \"name\": \"Viscount Who Loved Me\",\r\n        \"type\": \"fiction\",\r\n        \"available\": true\r\n    }\r\n]"
				}
			]
		}
	],
	"variable": [
		{
			"key": "url",
			"value": "https://2fe984a8-74da-4a76-a579-fa0202297741.mock.pstmn.io"
		}
	]
}